PracticaFinal
…
datosProvincias <- read_excel("DatosProvincias.xlsx")

datos_join <- datosPractica |> 
  left_join(datosProvincias, by = "PROVINCIA") |> 
  dplyr::select(-PROVINCIA)

datos_org <- datos_join |> 
  mutate(
    estp = factor(estp, levels = 0:1, labels = c("No", "Si")),
    GRUPOS_PROVINCIAS = factor(GRUPOS_PROVINCIAS)
  ) |> 
  dplyr::select( -c(REGISTRO, grupo, fju))
datos_org

## # A tibble: 4,403 x 15
##    rentabieco rentabifin  endp   liq PRODUCTIVIDAD VENTAS `NÚMERO DE EMPLEADOS`
##         <dbl>      <dbl> <dbl> <dbl>         <dbl>  <dbl>                 <dbl>
##  1      0.860       8.40  89.8 1.10         115.    1270.                     1
##  2     -4.75      -20.1   76.4 1.31         146.     338.                     1
##  3     -0.322      -1.93  83.3 0.854         11.7  17715.                    46
##  4     13.0        28.4   54.2 1.58          19.3  20848.                    40
##  5      1.46       55.7   97.4 1.01          37.0   1239.                     2
##  6      1.59        6.80  76.5 1.26          13.1  20071.                    54
##  7      9.97       31.7   68.5 0.588         12.0    273.                     1
##  8      4.38       11.3   61.3 0.943         70.8   1926.                     2
##  9      1.75       10.2   82.9 1.06           4.94   382.                     8
## 10      0.225      -1.57 114.  1.26           2.50   250.                     2
## # ... with 4,393 more rows, and 8 more variables: coe <dbl>, edad <dbl>,
## #   conce <dbl>, numac <dbl>, numpa <dbl>, numest <dbl>, estp <fct>,
## #   GRUPOS_PROVINCIAS <fct>

practica <- 
  rename(datos_org, Pdtvidad = PRODUCTIVIDAD, NºEmp = `NÚMERO DE EMPLEADOS`)
practica

## # A tibble: 4,403 x 15
##    rentabieco rentabifin  endp   liq Pdtvidad VENTAS NºEmp      coe  edad conce
##         <dbl>      <dbl> <dbl> <dbl>    <dbl>  <dbl> <dbl>    <dbl> <dbl> <dbl>
##  1      0.860       8.40  89.8 1.10    115.    1270.     1 0.00493      2     9
##  2     -4.75      -20.1   76.4 1.31    146.     338.     1 0.00131      8     9
##  3     -0.322      -1.93  83.3 0.854    11.7  17715.    46 0.0687      25    34
##  4     13.0        28.4   54.2 1.58     19.3  20848.    40 0.0809      24    34
##  5      1.46       55.7   97.4 1.01     37.0   1239.     2 0.00480      2     3
##  6      1.59        6.80  76.5 1.26     13.1  20071.    54 0.0779      40    34
##  7      9.97       31.7   68.5 0.588    12.0    273.     1 0.00106     10    34
##  8      4.38       11.3   61.3 0.943    70.8   1926.     2 0.00747     11    34
##  9      1.75       10.2   82.9 1.06      4.94   382.     8 0.00148     10     9
## 10      0.225      -1.57 114.  1.26      2.50   250.     2 0.000970    15    34
## # ... with 4,393 more rows, and 5 more variables: numac <dbl>, numpa <dbl>,
## #   numest <dbl>, estp <fct>, GRUPOS_PROVINCIAS <fct>
…
practica_log <- practica |> 
  mutate(
    VENTAS = log(VENTAS),
    liq = log(liq),
    conce = log(conce),
    coe = log(coe),
    numest = log(numest),
    NºEmp = log(NºEmp),
  )
practica_log

## # A tibble: 4,403 x 15
##    rentabieco rentabifin  endp      liq Pdtvidad VENTAS NºEmp   coe  edad conce
##         <dbl>      <dbl> <dbl>    <dbl>    <dbl>  <dbl> <dbl> <dbl> <dbl> <dbl>
##  1      0.860       8.40  89.8  0.0968    115.     7.15 0     -5.31     2  2.20
##  2     -4.75      -20.1   76.4  0.269     146.     5.82 0     -6.64     8  2.20
##  3     -0.322      -1.93  83.3 -0.158      11.7    9.78 3.83  -2.68    25  3.53
##  4     13.0        28.4   54.2  0.456      19.3    9.95 3.69  -2.51    24  3.53
##  5      1.46       55.7   97.4  0.00922    37.0    7.12 0.693 -5.34     2  1.10
##  6      1.59        6.80  76.5  0.232      13.1    9.91 3.99  -2.55    40  3.53
##  7      9.97       31.7   68.5 -0.531      12.0    5.61 0     -6.85    10  3.53
##  8      4.38       11.3   61.3 -0.0582     70.8    7.56 0.693 -4.90    11  3.53
##  9      1.75       10.2   82.9  0.0585      4.94   5.95 2.08  -6.51    10  2.20
## 10      0.225      -1.57 114.   0.233       2.50   5.52 0.693 -6.94    15  3.53
## # ... with 4,393 more rows, and 5 more variables: numac <dbl>, numpa <dbl>,
## #   numest <dbl>, estp <fct>, GRUPOS_PROVINCIAS <fct>
…
